…
There were no missing values indetified in Product Name and Rating columns. The only sufficent numbers of missing values were found in the following fields: Brand Name and Review Votes.It will be shown further how certain brand names were substituted by using their corresponding product names. Also, Price contained a small amount of missing values. However, the aproach, introduced below, that focuses on analyzing only the most important products, will help to filter these products out automatically and they will not influence the analysis results.

Step 2. Filtering out core products/brands.

The next step was to find out how many unique products exist in this dataset. The following command produced the results showing that originally there were 4410 products in the dataset.

#count number of products, n=4410 
amz %>% 
count(Product.Name)

## # A tibble: 4,410 x 2
##                                                                   Product.Name
##                                                                         <fctr>
##  1                                    'ATT Wireless LG CU720 Shine for in Red'
##  2 "\"CLEAR CLEAN ESN\" Sprint EPIC 4G Galaxy SPH-D700*FRONT CAMERA*ANDROID*SL
##  3 "\"Nokia Asha 302 Unlocked GSM Phone with 3.2MP Camera, Video, QWERTY Keybo
##  4   ((Unlocked))BlackBerry Bold 9650 Unlocked Clean ESN Smartphone non camera
##  5 "(LANDVO) 5.0\" Capacitive Touch MTK6582 Quad Core Android 4.2.2 3G Phone 5
##  6 "[XMAS DEAL] [New Edition] Jethro [SC213V2] Flip Quad-band Unlocked GSM Sen
##  7 [XMAS DEAL] Jethro [SC118] Simple Unlocked Quad-band GSM Senior & Kids Cell
##  8 10.6'' Inch E-passion Unlocked Smart Phone +Tablet='' Phablet'' Android 4.4
##  9 "2.45 \" IPS Touch Screen the World's Smallest Android Smartphone Dual Sim 
## 10 "2.45\" UNLOCKED Rugged Micro Android Smart Phone; Dual-Sim, WiFi, and Blue
## # ... with 4,400 more rows, and 1 more variables: n <int>
…
